﻿Build started 10/29/2015 4:30:35 PM.
     1>Project "C:\Users\Natali\Desktop\Projects\EXTERNAL\IR\DPL_DIALER_CODE\2015_10_27\ConsoleApplication1_test\ConsoleApplication1_test\ConsoleApplication1_test.vcxproj" on node 2 (Build target(s)).
     1>Link:
         C:\Program Files (x86)\Microsoft Visual Studio 12.0\VC\bin\link.exe /ERRORREPORT:PROMPT /OUT:"C:\Users\Natali\Desktop\Projects\EXTERNAL\IR\DPL_DIALER_CODE\2015_10_27\ConsoleApplication1_test\Debug\ConsoleApplication1_test.exe" /INCREMENTAL /NOLOGO kernel32.lib user32.lib gdi32.lib winspool.lib comdlg32.lib advapi32.lib shell32.lib ole32.lib oleaut32.lib uuid.lib odbc32.lib odbccp32.lib /MANIFEST /MANIFESTUAC:"level='asInvoker' uiAccess='false'" /manifest:embed /DEBUG /PDB:"C:\Users\Natali\Desktop\Projects\EXTERNAL\IR\DPL_DIALER_CODE\2015_10_27\ConsoleApplication1_test\Debug\ConsoleApplication1_test.pdb" /SUBSYSTEM:CONSOLE /TLBID:1 /DYNAMICBASE /NXCOMPAT /IMPLIB:"C:\Users\Natali\Desktop\Projects\EXTERNAL\IR\DPL_DIALER_CODE\2015_10_27\ConsoleApplication1_test\Debug\ConsoleApplication1_test.lib" /MACHINE:X86 Debug\Source.obj
         ConsoleApplication1_test.vcxproj -> C:\Users\Natali\Desktop\Projects\EXTERNAL\IR\DPL_DIALER_CODE\2015_10_27\ConsoleApplication1_test\Debug\ConsoleApplication1_test.exe
     1>Done Building Project "C:\Users\Natali\Desktop\Projects\EXTERNAL\IR\DPL_DIALER_CODE\2015_10_27\ConsoleApplication1_test\ConsoleApplication1_test\ConsoleApplication1_test.vcxproj" (Build target(s)).

Build succeeded.

Time Elapsed 00:00:03.52
