^C:\USERS\NATALI\DESKTOP\PROJECTS\EXTERNAL\IR\DPL_DIALER_CODE\2015_10_27\CONSOLEAPPLICATION1_TEST\CONSOLEAPPLICATION1_TEST\DEBUG\SOURCE.OBJ
C:\USERS\NATALI\DESKTOP\PROJECTS\EXTERNAL\IR\DPL_DIALER_CODE\2015_10_27\CONSOLEAPPLICATION1_TEST\DEBUG\CONSOLEAPPLICATION1_TEST.ILK
C:\USERS\NATALI\DESKTOP\PROJECTS\EXTERNAL\IR\DPL_DIALER_CODE\2015_10_27\CONSOLEAPPLICATION1_TEST\DEBUG\CONSOLEAPPLICATION1_TEST.EXE
C:\USERS\NATALI\DESKTOP\PROJECTS\EXTERNAL\IR\DPL_DIALER_CODE\2015_10_27\CONSOLEAPPLICATION1_TEST\DEBUG\CONSOLEAPPLICATION1_TEST.PDB
^C:\USERS\NATALI\DESKTOP\PROJECTS\EXTERNAL\IR\DPL_DIALER_CODE\2015_10_30\CONSOLEAPPLICATION1_TEST\CONSOLEAPPLICATION1_TEST\DEBUG\SOURCE.OBJ
C:\USERS\NATALI\DESKTOP\PROJECTS\EXTERNAL\IR\DPL_DIALER_CODE\2015_10_30\CONSOLEAPPLICATION1_TEST\DEBUG\CONSOLEAPPLICATION1_TEST.ILK
C:\USERS\NATALI\DESKTOP\PROJECTS\EXTERNAL\IR\DPL_DIALER_CODE\2015_10_30\CONSOLEAPPLICATION1_TEST\DEBUG\CONSOLEAPPLICATION1_TEST.EXE
C:\USERS\NATALI\DESKTOP\PROJECTS\EXTERNAL\IR\DPL_DIALER_CODE\2015_10_30\CONSOLEAPPLICATION1_TEST\DEBUG\CONSOLEAPPLICATION1_TEST.PDB
