^C:\USERS\NATALI\DESKTOP\PROJECTS\EXTERNAL\IR\DPL_DIALER_CODE\2015_10_27\CONSOLEAPPLICATION1_TEST\CONSOLEAPPLICATION1_TEST\SOURCE.CPP
/c /ZI /nologo /W3 /WX- /sdl /Od /Oy- /D WIN32 /D _DEBUG /D _CONSOLE /D _LIB /D _UNICODE /D UNICODE /Gm /EHsc /RTC1 /MDd /GS /fp:precise /Zc:wchar_t /Zc:forScope /Fo"DEBUG\\" /Fd"DEBUG\VC120.PDB" /Gd /TP /analyze- C:\USERS\NATALI\DESKTOP\PROJECTS\EXTERNAL\IR\DPL_DIALER_CODE\2015_10_27\CONSOLEAPPLICATION1_TEST\CONSOLEAPPLICATION1_TEST\SOURCE.CPP
^C:\USERS\NATALI\DESKTOP\PROJECTS\EXTERNAL\IR\DPL_DIALER_CODE\2015_10_28\CONSOLEAPPLICATION1_TEST\CONSOLEAPPLICATION1_TEST\SOURCE.CPP
/c /ZI /nologo /W3 /WX- /sdl /Od /Oy- /D WIN32 /D _DEBUG /D _CONSOLE /D _LIB /D _UNICODE /D UNICODE /Gm /EHsc /RTC1 /MDd /GS /fp:precise /Zc:wchar_t /Zc:forScope /Fo"DEBUG\\" /Fd"DEBUG\VC120.PDB" /Gd /TP /analyze- C:\USERS\NATALI\DESKTOP\PROJECTS\EXTERNAL\IR\DPL_DIALER_CODE\2015_10_28\CONSOLEAPPLICATION1_TEST\CONSOLEAPPLICATION1_TEST\SOURCE.CPP
