^C:\USERS\NATALI\DESKTOP\PROJECTS\EXTERNAL\IR\DPL_DIALER_CODE\2015_10_27\CONSOLEAPPLICATION1_TEST\CONSOLEAPPLICATION1_TEST\SOURCE.CPP
C:\USERS\NATALI\DESKTOP\PROJECTS\EXTERNAL\IR\DPL_DIALER_CODE\2015_10_27\CONSOLEAPPLICATION1_TEST\CONSOLEAPPLICATION1_TEST\DEBUG\VC120.PDB
C:\USERS\NATALI\DESKTOP\PROJECTS\EXTERNAL\IR\DPL_DIALER_CODE\2015_10_27\CONSOLEAPPLICATION1_TEST\CONSOLEAPPLICATION1_TEST\DEBUG\VC120.IDB
C:\USERS\NATALI\DESKTOP\PROJECTS\EXTERNAL\IR\DPL_DIALER_CODE\2015_10_27\CONSOLEAPPLICATION1_TEST\CONSOLEAPPLICATION1_TEST\DEBUG\SOURCE.OBJ
^C:\USERS\NATALI\DESKTOP\PROJECTS\EXTERNAL\IR\DPL_DIALER_CODE\2015_10_28\CONSOLEAPPLICATION1_TEST\CONSOLEAPPLICATION1_TEST\SOURCE.CPP
C:\USERS\NATALI\DESKTOP\PROJECTS\EXTERNAL\IR\DPL_DIALER_CODE\2015_10_28\CONSOLEAPPLICATION1_TEST\CONSOLEAPPLICATION1_TEST\DEBUG\VC120.PDB
C:\USERS\NATALI\DESKTOP\PROJECTS\EXTERNAL\IR\DPL_DIALER_CODE\2015_10_28\CONSOLEAPPLICATION1_TEST\CONSOLEAPPLICATION1_TEST\DEBUG\VC120.IDB
C:\USERS\NATALI\DESKTOP\PROJECTS\EXTERNAL\IR\DPL_DIALER_CODE\2015_10_28\CONSOLEAPPLICATION1_TEST\CONSOLEAPPLICATION1_TEST\DEBUG\SOURCE.OBJ
